<?xml version="1.0"?>

<robot xmlns:xacro="http://www.ros.org/wiki/xacro" name="panda">


  <xacro:include filename="$(find autoencoding_rl)/urdf/pushing_ee.xacro" />
  <xacro:include filename="$(find autoencoding_rl)/urdf/pushing_ee_rs_holder.xacro" />
  <xacro:include filename="$(find lr_panda)/urdf/panda_arm_generic.xacro"/>
  <xacro:include filename="$(find lr_realsense)/urdf/d435i_sim.xacro" />

  <link name="world"/>

  <link name="robot_platform">
    <visual>
      <origin xyz="-0.0415 0 0.005" rpy="$(arg robot_base_roll) $(arg robot_base_pitch) $(arg robot_base_yaw)" />
      <geometry>
        <box size="0.22 0.5 0.01"  />
      </geometry>
    </visual>
    <!-- <collision>
      <origin xyz="-0.0415 0 0.005" rpy="$(arg robot_base_roll) $(arg robot_base_pitch) $(arg robot_base_yaw)" />
      <geometry>
        <box size="0.22 0.5 0.01" />
      </geometry>
    </collision> -->
  </link>
  <gazebo reference="robot_platform">
    <mu1 value="0.6"/>
    <mu2 value="0.6"/>
    <material>Gazebo/Grey</material>
  </gazebo>
  <joint name="world_to_robot_platform" type="fixed">
    <origin xyz="$(arg robot_base_x) $(arg robot_base_y) $(arg robot_base_z)" rpy="0 0 0" />
    <parent link="world"/>
    <child link="robot_platform"/>
  </joint>

  <xacro:panda_arm_generic  robot_name="$(arg robot_name)"
                            x="0"
                            y="0"
                            z="0.01"
                            roll="0"
                            pitch="0"
                            yaw="0"
                            connected_to="robot_platform"
                            control_mode="$(arg control_mode)"
                            load_hand="false"
                            arm_collisions="false"/>

  <!-- <xacro:pushing_ee_rs_holder parent="$(arg robot_name)_link8"
                    name="pushing_ee_rs_holder">
    <origin xyz="0 0 0.0" rpy="${pi/2} 0 -${pi/4}"/>
  </xacro:pushing_ee_rs_holder> -->

  <xacro:pushing_ee parent="$(arg robot_name)_link8"
                    name="pushing_ee">
    <origin xyz="0 0 0.0001" rpy="${pi/2} 0 ${pi/4}"/>
  </xacro:pushing_ee>

  <xacro:property name="enable_internal_camera" value="$(arg enable_internal_camera)"/>
  <xacro:property name="enable_external_camera" value="$(arg enable_external_camera)"/>
  <xacro:property name="show_internal_camera" value="$(arg show_internal_camera)"/>
  <xacro:property name="show_external_camera" value="$(arg show_external_camera)"/>

  <xacro:property name="enable_color" value="$(arg enable_color)"/>
  <xacro:property name="enable_infra1" value="$(arg enable_infra1)"/>
  <xacro:property name="enable_infra2" value="$(arg enable_infra2)"/>
  <xacro:property name="enable_depth" value="$(arg enable_depth)"/>
  <xacro:property name="enable_label" value="$(arg enable_label)"/>
  <xacro:property name="enable_accel" value="$(arg enable_accel)"/>
  <xacro:property name="enable_gyro" value="$(arg enable_gyro)"/>
  
  <xacro:if value="${show_internal_camera}">
    <xacro:d435i_sim
            parent="pushing_ee_rs_holder_left_screw"
            name="$(arg camera_name)_hand"
            static="$(arg static)"
            enable_color= "${enable_color and enable_internal_camera}"
            enable_infra1="${enable_infra1 and enable_internal_camera}"
            enable_infra2="${enable_infra2 and enable_internal_camera}"
            enable_depth= "${enable_depth and enable_internal_camera}"
            enable_label= "${enable_label and enable_internal_camera}"
            enable_accel= "${enable_accel and enable_internal_camera}"
            enable_gyro=  "${enable_gyro and enable_internal_camera}"
            label_format="$(arg label_format)"
            color_width="$(arg color_width)"
            color_height="$(arg color_height)"
            color_fps="$(arg color_fps)"
            infra_width="$(arg infra_width)"
            infra_height="$(arg infra_height)"
            infra_fps="$(arg infra_fps)"
            depth_width="$(arg depth_width)"
            depth_height="$(arg depth_height)"
            depth_fps="$(arg depth_fps)"
            gyro_fps="$(arg gyro_fps)"
            accel_fps="$(arg accel_fps)"
            enable_gravity="true">
      <origin xyz="0.0102 -0.0225 -0.0125" rpy="0 0 0"/> <!--left back screw to bottom screw mount -->
    </xacro:d435i_sim>
  </xacro:if>

  <xacro:if value="${show_external_camera}">
    <joint name="external_cam_mount_joint" type="fixed">
        <origin xyz="$(arg camera_x) $(arg camera_y) $(arg camera_z)" rpy="$(arg camera_roll_absx) $(arg camera_pitch_absy) $(arg camera_yaw_absz)"/>
        <parent link="world"/>
        <child link="external_cam_mount_left_screw"/>
    </joint>
    <link name="external_cam_mount_left_screw"/>
    <xacro:d435i_sim
            parent="external_cam_mount_left_screw"
            name="$(arg camera_name)"
            static="$(arg static)"
            enable_color= "${enable_color and enable_external_camera}"
            enable_infra1="${enable_infra1 and enable_external_camera}"
            enable_infra2="${enable_infra2 and enable_external_camera}"
            enable_depth= "${enable_depth and enable_external_camera}"
            enable_label= "${enable_label and enable_external_camera}"
            enable_accel= "${enable_accel and enable_external_camera}"
            enable_gyro=  "${enable_gyro and enable_external_camera}"
            label_format="$(arg label_format)"
            color_width="$(arg color_width)"
            color_height="$(arg color_height)"
            color_fps="$(arg color_fps)"
            infra_width="$(arg infra_width)"
            infra_height="$(arg infra_height)"
            infra_fps="$(arg infra_fps)"
            depth_width="$(arg depth_width)"
            depth_height="$(arg depth_height)"
            depth_fps="$(arg depth_fps)"
            gyro_fps="$(arg gyro_fps)"
            accel_fps="$(arg accel_fps)"
            enable_gravity="true">
      <origin xyz="0.0102 -0.0225 -0.0125" rpy="0 0 0"/> <!--left back screw to bottom screw mount -->
    </xacro:d435i_sim>
  </xacro:if>
</robot>