<sdf version="1.4">
<world name="default">

    <scene>
      <ambient>0.0 0.0 0.0 1</ambient>
      <!-- <shadows>false</shadows> -->
    </scene>

    <gravity>0 0 -9.80665</gravity>


    <plugin name='lr_gym_env' filename='libgazebo_gym_env_plugin.so'/>

    <physics name="bullet_5x" type="bullet" default="true">
      <max_step_size>0.0041666</max_step_size> <!-- 240fps, bullet should be optimized for this frequency -->
      <real_time_update_rate>1200</real_time_update_rate> <!-- steps done in each real-time second, -1 does as many as possible-->
      <bullet>
        <solver>
          <type>sequential_impulse</type>
          <iters>10</iters>
          <sor>1</sor>
        </solver>
        <constraints>
          <cfm>0.01</cfm>
          <erp>0.2</erp>
          <contact_surface_layer>0.001</contact_surface_layer>
          <split_impulse>1</split_impulse> <!-- Do not bounce objects away in case of penetration -->
          <split_impulse_penetration_threshold>-0.04</split_impulse_penetration_threshold> <!-- ONly use split impulse for contacts this deep -->
        </constraints>
      </bullet>
    </physics>

    <physics name="ode_5x" type="ode" default="true">
      <max_step_size>0.001</max_step_size>
      <real_time_update_rate>5000</real_time_update_rate> <!-- steps done in each real-time second, -1 does as many as possible-->
      <max_contacts>50</max_contacts>
      <ode>
        <solver>
          <island_threads>4</island_threads>
        </solver>
        <thread_position_correction>true</thread_position_correction>
        <friction_model>cone_model</friction_model>
      </ode>
    </physics>

    <physics name="ode_walltime" type="ode" default="true">
      <max_step_size>0.001</max_step_size>
      <real_time_update_rate>1000</real_time_update_rate> <!-- steps done in each real-time second, -1 does as many as possible-->
      <max_contacts>50</max_contacts>
      <ode>
        <solver>
          <island_threads>4</island_threads>
        </solver>
        <thread_position_correction>true</thread_position_correction>
        <friction_model>cone_model</friction_model>
      </ode>
    </physics>

    <physics name="ode_unlimited" type="ode" default="true">
      <max_step_size>0.001</max_step_size>
      <real_time_update_rate>-1</real_time_update_rate> <!-- steps done in each real-time second, -1 does as many as possible-->
      <max_contacts>50</max_contacts>
      <ode>
        <solver>
          <island_threads>4</island_threads>
        </solver>
        <thread_position_correction>true</thread_position_correction>
        <friction_model>cone_model</friction_model>
      </ode>
    </physics>

    <model name='fixed_cam'>
      <static>true</static>
      <link name='fixed_cam'>
        <sensor name='fixed_cam' type='camera'>
      		<camera name='__default__'>
      			<horizontal_fov>1.047</horizontal_fov>
      			<image>
      				<width>426</width>
      				<height>240</height>
      			</image>
      			<clip>
      				<near>0.1</near>
      				<far>100</far>
      			</clip>
      			<distortion>
      				<k1>-0.25</k1>
      				<k2>0.12</k2>
      				<k3>0</k3>
      				<p1>-0.00028</p1>
      				<p2>-5e-05</p2>
      				<center>0.5 0.5</center>
      			</distortion>
      		</camera>
      		<plugin name="camera_controller" filename="libgazebo_ros_camera.so">
      			<alwaysOn>true</alwaysOn>
      			<updateRate>0.0</updateRate>
      			<cameraName>fixed_camera_world/camera</cameraName>
      			<imageTopicName>image_raw</imageTopicName>
      			<cameraInfoTopicName>camera_info</cameraInfoTopicName>
      			<frameName>camera_link</frameName>
      			<hackBaseline>0.07</hackBaseline>
      			<distortionK1>0.0</distortionK1>
      			<distortionK2>0.0</distortionK2>
      			<distortionK3>0.0</distortionK3>
      			<distortionT1>0.0</distortionT1>
      			<distortionT2>0.0</distortionT2>
      		</plugin>
      		<always_on>1</always_on>
      		<update_rate>30</update_rate>
      		<visualize>1</visualize>
        </sensor>
        <self_collide>0</self_collide>
        <enable_wind>0</enable_wind>
        <kinematic>0</kinematic>
      </link>
      <pose frame=''>0.5 -2 0.5 0 0 1.57</pose>
    </model>

</world>
</sdf>
